{
  "id": "/Content",
  "type": "object",
  "properties": {
    "title": {"type": "string"},
    "content": {"type": "string"},
    "tags": {
      "type": "array",
      "items": {
        "type": "string"
      }
    }
  },
  "required": ["title", "content", "tags"],
  "additionalProperties": false
}